{
  "type": "service_account",
  "project_id": "bernhackt-287619",
  "private_key_id": "c25f235ad8870f6561fb010eb35c2c6f70259cb2",
  "private_key": "-----BEGIN PRIVATE KEY-----\nMIIEvgIBADANBgkqhkiG9w0BAQEFAASCBKgwggSkAgEAAoIBAQDeT8yn9Bes3rO2\nPOHIKvHM2y0O9J+tyob+HzxKrgph/8ApLb9SJZkoGFj9XpJnoRWDYDSfZiBVBPsb\nKcf9bi5nLxV2vx2Mx7qC4b/+Kt31Fk5MwE+Vab6opcl2hKKqg0nnQa/sb+ifKk8s\nwTGzsDvM0b3iymNedOMVMfF/yKk2bhJJ+F6H5lgL5f/InBjdZw78ToLSg55V7zJu\nh0VwVhB07WNnlQy4bz2jpq2EJcgN0A8SMU9a4/m3RAjfcZHNDu6g2Titwlh7SvPs\nSbtLDFUraMLy8oUCD2DZxYkHrIUtrpN1JpNkqSdCVNWzey+KTtpMgXIcK8o+XBMF\nFiPW49kRAgMBAAECggEAChytHXKf5RAYMpDgYD970iqiCQ0dekU9ELARCQCTnlOI\nxRa8nhrxtX4uBhBYLniIRvqISjvV+qgIV/r1itSJLc5ZdpZI3M9072EfX4tJn01N\ncHZK6Gvv7THlUQvFbmYcZXV6cBHDDgJZqZp8DUVV4wIjVf6IuJIuhhdIedyBveT8\nHyQzUsQ62r5JhdZpGwLRY4PtMxt7bdkBMdotjHhX+2EwmWllEKp49ke89dCRQ20P\nm3w5YfDjbJs1lQfOhxoS0IfKByDFCf6p6wUmHkQhe5x4+iliBatm0N+1T1WeV6vq\nJHtiPBt2Oak5P6ZeFAY2S1VwZkA9RwnrlaCKN561NQKBgQD2eM+YiG6TUebP7zuw\nl5gSHF+NnW4pQ/e9hvWc/OZ5OtM/xD1icI2xN/15UFr6hrvcA4TI7E/kkE+FArri\nd8cFRngiNrSmzfs2gmsmGmYwlkN1aGvkLzaHzAM/Ga56A9vMI5IiJMRZG6bwk5lf\nEKXPV354VtArCEtIaHGznQBbfwKBgQDm5+OaNBAlryoETHUxylLcYnCSMCFZIbsU\n0ftWo+FA27VSN70hjxzr7/AIL4n1dgwfxh9EuMDLFWG8F1WYf2Ud8aSgDCdbY/9z\nwg9DZjcKEZXsXAkPV9Wg88ds9sILDXY4CpmejPOiK+EV6eX1tlnAMm/OFgcSxy5d\nljDcau5TbwKBgQDVtDqLjwARTFpMwKmInGiGi4NuTqpNrVkJRBOCYuWTB6ZTC9wN\nlnnExz9ICJxZzKjmQ0bGz98V1uqb8ZoI8sHlmQxg3f4VA1RmFv7AsvMX/bHQAxJJ\nb4ZgiEvoUmQt91qEzfLPGAIHISrGPbQl8VFTThGiVeN47GAaEDVF/0NoEQKBgQCC\nkrb+SFqpNLiJ3cKX+VWKEpCd2mHBSXXFfEio4dtLFfMfHy3wgEFWmkQeHOPiznJk\ntWCRN/it3tV5y6g3qDLCEBeL+dN3tsCJ8T84WeDd7LvfANyOtJi1f6VSVOe94Ert\nvfDI2+QZ3L5X6gCERi3SpbLb01EEqWXqvje7LSzAOQKBgG9bkzC+7e3zW1m719f7\ndxEiU/aD/druDUGuV7J7xTNrigX5g4/DUUYMsFsg65KiXEciWkO5P8RalxFsUPrE\nxLpcqBC2L2RTboNUAkwNb9GvD+AXHeAqTgrYIujVAVrK3ON9sVnj0ZX8wNJ3fCxg\nnP7e2zx3nV2aWCVoq7Hu02gI\n-----END PRIVATE KEY-----\n",
  "client_email": "vision@bernhackt-287619.iam.gserviceaccount.com",
  "client_id": "112421931781053082404",
  "auth_uri": "https://accounts.google.com/o/oauth2/auth",
  "token_uri": "https://oauth2.googleapis.com/token",
  "auth_provider_x509_cert_url": "https://www.googleapis.com/oauth2/v1/certs",
  "client_x509_cert_url": "https://www.googleapis.com/robot/v1/metadata/x509/vision%40bernhackt-287619.iam.gserviceaccount.com"
}
